{
    "message": "All transactions retrieved successfully.",
    "statusCode": 200,
    "data": {
        "data": [
            {
                "transactionID": "a7941f7e-2ea9-4925-ae82-997f7f220f9d",
                "startDate": "2025-06-27T15:54:44.688782",
                "endDate": "2025-06-30T15:54:44.688782",
                "baseCost": 410204.00,
                "totalCost": 447954.00,
                "paymentStatus": "PENDING",
                "bookingStatus": "PENDING",
                "bike": {
                    "bikeID": "e4e3766e-0f3e-415d-8d87-dab57a4daf76",
                    "name": "Kawasaki NMAX 198",
                    "year": 0,
                    "transmissionType": null,
                    "machineCapacity": null,
                    "photoURL": null,
                    "brand": "Kawasaki",
                    "weekdayPricePerDay": 102551.00,
                    "weekendPricePerDay": null
                },
                "customer": {
                    "userID": "cf692f6a-aedb-4497-afa8-c08ff0754452",
                    "firstName": "GenUser17",
                    "lastName": "Customer84",
                    "email": "customergen17@rebike.com",
                    "phoneNumber": "08686564778"
                }
            },
            {
                "transactionID": "007b30bc-95d6-4a83-82f4-0cf93d4888b0",
                "startDate": "2025-06-08T15:54:44.688782",
                "endDate": "2025-06-13T15:54:44.688782",
                "baseCost": 827988.00,
                "totalCost": 836101.00,
                "paymentStatus": "CANCELLED",
                "bookingStatus": "CANCELLED",
                "bike": {
                    "bikeID": "f963a742-e1e2-4edc-b353-32c5daedd3ef",
                    "name": "BMW Beat 180",
                    "year": 0,
                    "transmissionType": null,
                    "machineCapacity": null,
                    "photoURL": null,
                    "brand": "BMW",
                    "weekdayPricePerDay": 137998.00,
                    "weekendPricePerDay": null
                },
                "customer": {
                    "userID": "dd079077-22ff-417f-9776-8b2c3daf7fb4",
                    "firstName": "GenUser9",
                    "lastName": "Customer4",
                    "email": "customergen9@rebike.com",
                    "phoneNumber": "08123430743"
                }
            },
            {
                "transactionID": "0e212e2c-51b9-4907-91ff-d54e2689d397",
                "startDate": "2025-06-11T15:54:44.688782",
                "endDate": "2025-06-14T15:54:44.688782",
                "baseCost": 285844.00,
                "totalCost": 312097.00,
                "paymentStatus": "PAID",
                "bookingStatus": "CONFIRMED",
                "bike": {
                    "bikeID": "50ac1a41-4490-4cbf-a5cf-2823b43a2bd3",
                    "name": "Honda CBR 120",
                    "year": 0,
                    "transmissionType": null,
                    "machineCapacity": null,
                    "photoURL": null,
                    "brand": "Honda",
                    "weekdayPricePerDay": 71461.00,
                    "weekendPricePerDay": null
                },
                "customer": {
                    "userID": "b3519ed4-7d11-46eb-9355-6c5aefa38115",
                    "firstName": "GenUser53",
                    "lastName": "Customer21",
                    "email": "customergen53@rebike.com",
                    "phoneNumber": "08492058595"
                }
            },
            {
                "transactionID": "399ec728-dfb9-434d-bbe6-c212400c8263",
                "startDate": "2025-08-04T15:54:44.688782",
                "endDate": "2025-08-11T15:54:44.688782",
                "baseCost": 1363584.00,
                "totalCost": 1401999.00,
                "paymentStatus": "PENDING",
                "bookingStatus": "PENDING",
                "bike": {
                    "bikeID": "52d275cc-1565-4807-bc9b-29bca484f10c",
                    "name": "Yamaha Vario 149",
                    "year": 0,
                    "transmissionType": null,
                    "machineCapacity": null,
                    "photoURL": null,
                    "brand": "Yamaha",
                    "weekdayPricePerDay": 170448.00,
                    "weekendPricePerDay": null
                },
                "customer": {
                    "userID": "3e6f68a7-1e46-4782-a513-500ade2784af",
                    "firstName": "GenUser42",
                    "lastName": "Customer91",
                    "email": "customergen42@rebike.com",
                    "phoneNumber": "08247590007"
                }
            },
            {
                "transactionID": "b33823d8-26c8-4e09-b653-bb68ae18bd26",
                "startDate": "2025-06-29T15:54:44.689785",
                "endDate": "2025-07-04T15:54:44.689785",
                "baseCost": 942234.00,
                "totalCost": 964616.00,
                "paymentStatus": "PENDING",
                "bookingStatus": "PENDING",
                "bike": {
                    "bikeID": "dbcde03f-e7d5-4197-a2b9-de9a3e61cd92",
                    "name": "Vespa GS 112",
                    "year": 0,
                    "transmissionType": null,
                    "machineCapacity": null,
                    "photoURL": null,
                    "brand": "Vespa",
                    "weekdayPricePerDay": 157039.00,
                    "weekendPricePerDay": null
                },
                "customer": {
                    "userID": "0ac2d76a-cecd-456e-9509-25e01f2286e9",
                    "firstName": "GenUser48",
                    "lastName": "Customer60",
                    "email": "customergen48@rebike.com",
                    "phoneNumber": "08985151390"
                }
            },
            {
                "transactionID": "8a2772b2-2159-49e8-b079-81f281c21495",
                "startDate": "2025-06-08T15:54:44.689785",
                "endDate": "2025-06-15T15:54:44.689785",
                "baseCost": 894152.00,
                "totalCost": 906876.00,
                "paymentStatus": "PAID",
                "bookingStatus": "CONFIRMED",
                "bike": {
                    "bikeID": "25b48aef-aa26-4d38-9072-d27c91a8dbac",
                    "name": "Ducati Ninja 132",
                    "year": 0,
                    "transmissionType": null,
                    "machineCapacity": null,
                    "photoURL": null,
                    "brand": "Ducati",
                    "weekdayPricePerDay": 111769.00,
                    "weekendPricePerDay": null
                },
                "customer": {
                    "userID": "0ac2d76a-cecd-456e-9509-25e01f2286e9",
                    "firstName": "GenUser48",
                    "lastName": "Customer60",
                    "email": "customergen48@rebike.com",
                    "phoneNumber": "08985151390"
                }
            },
            {
                "transactionID": "038187b4-c206-4bd7-8878-dd1dd74e8032",
                "startDate": "2025-07-12T15:54:44.689785",
                "endDate": "2025-07-19T15:54:44.689785",
                "baseCost": 660680.00,
                "totalCost": 673342.00,
                "paymentStatus": "PENDING",
                "bookingStatus": "PENDING",
                "bike": {
                    "bikeID": "7408ac66-d232-4ec0-afc6-4a01ddac7142",
                    "name": "Suzuki GS 102",
                    "year": 0,
                    "transmissionType": null,
                    "machineCapacity": null,
                    "photoURL": null,
                    "brand": "Suzuki",
                    "weekdayPricePerDay": 82585.00,
                    "weekendPricePerDay": null
                },
                "customer": {
                    "userID": "7a632245-d4ac-4713-b82b-f9dbc2360bab",
                    "firstName": "GenUser15",
                    "lastName": "Customer10",
                    "email": "customergen15@rebike.com",
                    "phoneNumber": "08386007964"
                }
            },
            {
                "transactionID": "02a7aa69-8e11-4587-88f8-573050622487",
                "startDate": "2025-08-04T15:54:44.690786",
                "endDate": "2025-08-08T15:54:44.690786",
                "baseCost": 252075.00,
                "totalCost": 294203.00,
                "paymentStatus": "CANCELLED",
                "bookingStatus": "CANCELLED",
                "bike": {
                    "bikeID": "15d60e5e-369a-4f99-ab38-c025625458b9",
                    "name": "Ducati PCX 136",
                    "year": 0,
                    "transmissionType": null,
                    "machineCapacity": null,
                    "photoURL": null,
                    "brand": "Ducati",
                    "weekdayPricePerDay": 50415.00,
                    "weekendPricePerDay": null
                },
                "customer": {
                    "userID": "43a2bc04-534c-44d1-abf6-a60e75208bf9",
                    "firstName": "GenUser43",
                    "lastName": "Customer65",
                    "email": "customergen43@rebike.com",
                    "phoneNumber": "08250843282"
                }
            },
            {
                "transactionID": "4d1213ff-5125-431a-b446-2659b7bde454",
                "startDate": "2025-07-07T15:54:44.690786",
                "endDate": "2025-07-13T15:54:44.690786",
                "baseCost": 1259062.00,
                "totalCost": 1298345.00,
                "paymentStatus": "PAID",
                "bookingStatus": "CONFIRMED",
                "bike": {
                    "bikeID": "974bee19-bc0a-44bf-95e4-e9a32394b0fe",
                    "name": "Kawasaki Beat 101",
                    "year": 0,
                    "transmissionType": null,
                    "machineCapacity": null,
                    "photoURL": null,
                    "brand": "Kawasaki",
                    "weekdayPricePerDay": 179866.00,
                    "weekendPricePerDay": null
                },
                "customer": {
                    "userID": "5ba80673-4895-4783-9fb1-4dcba19bda34",
                    "firstName": "GenUser65",
                    "lastName": "Customer32",
                    "email": "customergen65@rebike.com",
                    "phoneNumber": "08457984093"
                }
            },
            {
                "transactionID": "9b3eba09-52eb-4003-88e3-a1b1cf05b475",
                "startDate": "2025-06-26T15:54:44.690786",
                "endDate": "2025-06-27T15:54:44.690786",
                "baseCost": 242140.00,
                "totalCost": 264041.00,
                "paymentStatus": "PAID",
                "bookingStatus": "CONFIRMED",
                "bike": {
                    "bikeID": "16400002-f5ae-40e5-99ef-a181d743cfc0",
                    "name": "Vespa CBR 130",
                    "year": 0,
                    "transmissionType": null,
                    "machineCapacity": null,
                    "photoURL": null,
                    "brand": "Vespa",
                    "weekdayPricePerDay": 121070.00,
                    "weekendPricePerDay": null
                },
                "customer": {
                    "userID": "740886e0-2859-45a5-b39c-a1fa6501ef4c",
                    "firstName": "GenUser46",
                    "lastName": "Customer89",
                    "email": "customergen46@rebike.com",
                    "phoneNumber": "08993980442"
                }
            },
            {
                "transactionID": "8cdedf7e-2e64-4327-bddf-d0a261a5f940",
                "startDate": "2025-07-26T15:54:44.69179",
                "endDate": "2025-07-31T15:54:44.69179",
                "baseCost": 610440.00,
                "totalCost": 612199.00,
                "paymentStatus": "PAID",
                "bookingStatus": "COMPLETED",
                "bike": {
                    "bikeID": "8e6dd9d7-1072-4f42-b864-920351e5dec3",
                    "name": "Suzuki NMAX 163",
                    "year": 0,
                    "transmissionType": null,
                    "machineCapacity": null,
                    "photoURL": null,
                    "brand": "Suzuki",
                    "weekdayPricePerDay": 101740.00,
                    "weekendPricePerDay": null
                },
                "customer": {
                    "userID": "80ea1b1c-8716-4626-b51e-118dfefc262c",
                    "firstName": "GenUser28",
                    "lastName": "Customer73",
                    "email": "customergen28@rebike.com",
                    "phoneNumber": "08595538773"
                }
            },
            {
                "transactionID": "206c10ef-8c8e-44ce-86f1-cf38921c0645",
                "startDate": "2025-06-28T15:54:44.69179",
                "endDate": "2025-06-30T15:54:44.69179",
                "baseCost": 528450.00,
                "totalCost": 535318.00,
                "paymentStatus": "PENDING",
                "bookingStatus": "PENDING",
                "bike": {
                    "bikeID": "fbbefb7a-acd3-4ae6-aa06-afd7f0c7b40c",
                    "name": "Vespa PCX 164",
                    "year": 0,
                    "transmissionType": null,
                    "machineCapacity": null,
                    "photoURL": null,
                    "brand": "Vespa",
                    "weekdayPricePerDay": 176150.00,
                    "weekendPricePerDay": null
                },
                "customer": {
                    "userID": "e2d392f2-6e49-4aa2-b519-9fdd1c78b7ea",
                    "firstName": "GenUser26",
                    "lastName": "Customer73",
                    "email": "customergen26@rebike.com",
                    "phoneNumber": "08441955353"
                }
            },
            {
                "transactionID": "4de7f8de-47b2-4463-93fa-8a0db434f9ba",
                "startDate": "2025-06-11T15:54:44.69179",
                "endDate": "2025-06-16T15:54:44.69179",
                "baseCost": 1172568.00,
                "totalCost": 1214329.00,
                "paymentStatus": "PAID",
                "bookingStatus": "CONFIRMED",
                "bike": {
                    "bikeID": "20a5b083-2b62-4ecd-b2eb-03974b9fd5fd",
                    "name": "Ducati Beat 104",
                    "year": 0,
                    "transmissionType": null,
                    "machineCapacity": null,
                    "photoURL": null,
                    "brand": "Ducati",
                    "weekdayPricePerDay": 195428.00,
                    "weekendPricePerDay": null
                },
                "customer": {
                    "userID": "ead6beaf-cf2b-4062-a40d-cb90ad593bd8",
                    "firstName": "GenUser95",
                    "lastName": "Customer58",
                    "email": "customergen95@rebike.com",
                    "phoneNumber": "08810068896"
                }
            },
            {
                "transactionID": "13e0e925-64f5-4078-828f-c485e53b6277",
                "startDate": "2025-06-21T15:54:44.693297",
                "endDate": "2025-06-24T15:54:44.693297",
                "baseCost": 433228.00,
                "totalCost": 468113.00,
                "paymentStatus": "PENDING",
                "bookingStatus": "PENDING",
                "bike": {
                    "bikeID": "6811ad93-0973-4674-a6cf-180feeb74b2e",
                    "name": "Vespa Sprint 154",
                    "year": 0,
                    "transmissionType": null,
                    "machineCapacity": null,
                    "photoURL": null,
                    "brand": "Vespa",
                    "weekdayPricePerDay": 108307.00,
                    "weekendPricePerDay": null
                },
                "customer": {
                    "userID": "6af55eb9-b8c2-4dda-9006-8a36dc857728",
                    "firstName": "GenUser37",
                    "lastName": "Customer48",
                    "email": "customergen37@rebike.com",
                    "phoneNumber": "08895608149"
                }
            },
            {
                "transactionID": "63ecc58f-f72d-4657-9086-39fc9a111675",
                "startDate": "2025-06-17T15:54:44.695324",
                "endDate": "2025-06-21T15:54:44.695324",
                "baseCost": 576975.00,
                "totalCost": 598003.00,
                "paymentStatus": "PAID",
                "bookingStatus": "CONFIRMED",
                "bike": {
                    "bikeID": "51cdee0a-d141-4a9c-88b8-34d7a2620093",
                    "name": "Ducati PCX 140",
                    "year": 0,
                    "transmissionType": null,
                    "machineCapacity": null,
                    "photoURL": null,
                    "brand": "Ducati",
                    "weekdayPricePerDay": 115395.00,
                    "weekendPricePerDay": null
                },
                "customer": {
                    "userID": "4018e8de-d517-411e-90fe-12b1d029b52d",
                    "firstName": "GenUser73",
                    "lastName": "Customer95",
                    "email": "customergen73@rebike.com",
                    "phoneNumber": "08101428626"
                }
            },
            {
                "transactionID": "4961278d-9186-42a7-9c13-d8ed71f431bc",
                "startDate": "2025-07-25T15:54:44.696337",
                "endDate": "2025-07-27T15:54:44.696337",
                "baseCost": 510072.00,
                "totalCost": 521844.00,
                "paymentStatus": "EXPIRED",
                "bookingStatus": "CANCELLED",
                "bike": {
                    "bikeID": "0f9a7340-494a-4dcf-920c-3fb947d4a056",
                    "name": "Suzuki GS 158",
                    "year": 0,
                    "transmissionType": null,
                    "machineCapacity": null,
                    "photoURL": null,
                    "brand": "Suzuki",
                    "weekdayPricePerDay": 170024.00,
                    "weekendPricePerDay": null
                },
                "customer": {
                    "userID": "864b532d-faca-4db2-b5ef-40cb1fc40719",
                    "firstName": "GenUser70",
                    "lastName": "Customer9",
                    "email": "customergen70@rebike.com",
                    "phoneNumber": "08380030579"
                }
            },
            {
                "transactionID": "466d7c1a-3de5-46f4-adba-1036c1a07150",
                "startDate": "2025-07-17T15:54:44.696337",
                "endDate": "2025-07-20T15:54:44.696337",
                "baseCost": 314532.00,
                "totalCost": 322135.00,
                "paymentStatus": "PAID",
                "bookingStatus": "COMPLETED",
                "bike": {
                    "bikeID": "c7833bab-a540-4d55-ae89-173f1674adb3",
                    "name": "Ducati GS 132",
                    "year": 0,
                    "transmissionType": null,
                    "machineCapacity": null,
                    "photoURL": null,
                    "brand": "Ducati",
                    "weekdayPricePerDay": 78633.00,
                    "weekendPricePerDay": null
                },
                "customer": {
                    "userID": "4018e8de-d517-411e-90fe-12b1d029b52d",
                    "firstName": "GenUser73",
                    "lastName": "Customer95",
                    "email": "customergen73@rebike.com",
                    "phoneNumber": "08101428626"
                }
            },
            {
                "transactionID": "475ad8bb-6ffc-4def-8745-e7de69719c53",
                "startDate": "2025-07-11T15:54:44.69731",
                "endDate": "2025-07-15T15:54:44.69731",
                "baseCost": 498535.00,
                "totalCost": 546760.00,
                "paymentStatus": "PAID",
                "bookingStatus": "CONFIRMED",
                "bike": {
                    "bikeID": "3bb7dae5-5fef-47e8-93a5-4b79b812be62",
                    "name": "Kawasaki PCX 151",
                    "year": 0,
                    "transmissionType": null,
                    "machineCapacity": null,
                    "photoURL": null,
                    "brand": "Kawasaki",
                    "weekdayPricePerDay": 99707.00,
                    "weekendPricePerDay": null
                },
                "customer": {
                    "userID": "8e2d3dc4-799c-467b-9eae-7893756f5400",
                    "firstName": "GenUser24",
                    "lastName": "Customer4",
                    "email": "customergen24@rebike.com",
                    "phoneNumber": "08731898263"
                }
            },
            {
                "transactionID": "c3d506de-4650-4b46-bab3-94cddb20f685",
                "startDate": "2025-07-23T15:54:44.69731",
                "endDate": "2025-07-26T15:54:44.69731",
                "baseCost": 461580.00,
                "totalCost": 477255.00,
                "paymentStatus": "PAID",
                "bookingStatus": "COMPLETED",
                "bike": {
                    "bikeID": "51cdee0a-d141-4a9c-88b8-34d7a2620093",
                    "name": "Ducati PCX 140",
                    "year": 0,
                    "transmissionType": null,
                    "machineCapacity": null,
                    "photoURL": null,
                    "brand": "Ducati",
                    "weekdayPricePerDay": 115395.00,
                    "weekendPricePerDay": null
                },
                "customer": {
                    "userID": "f2a19420-26cd-426f-8973-0fd50b06239a",
                    "firstName": "GenUser11",
                    "lastName": "Customer27",
                    "email": "customergen11@rebike.com",
                    "phoneNumber": "08295746002"
                }
            },
            {
                "transactionID": "ff42ecf1-3696-4d83-908c-d21d2d31b0fc",
                "startDate": "2025-06-12T15:54:44.69731",
                "endDate": "2025-06-17T15:54:44.69731",
                "baseCost": 946686.00,
                "totalCost": 982713.00,
                "paymentStatus": "PAID",
                "bookingStatus": "CONFIRMED",
                "bike": {
                    "bikeID": "5e9c88f4-3413-4fa4-89a5-3caad846becb",
                    "name": "Vespa GS 165",
                    "year": 0,
                    "transmissionType": null,
                    "machineCapacity": null,
                    "photoURL": null,
                    "brand": "Vespa",
                    "weekdayPricePerDay": 157781.00,
                    "weekendPricePerDay": null
                },
                "customer": {
                    "userID": "eb49393c-0d1a-4454-8995-8fabc510383b",
                    "firstName": "GenUser52",
                    "lastName": "Customer33",
                    "email": "customergen52@rebike.com",
                    "phoneNumber": "08527948630"
                }
            }
        ],
        "page": 0,
        "size": 20,
        "totalElements": 50,
        "totalPages": 3
    }
}